Анализ продаж розничных магазинов
…
преобразуем столбцы, содержащие уникальный id поставщика товара и артикул товара, из целочисленных переменных в факторные. Это необходимо для корректной работы с данными;

оставшийся столбец Наименование содержит в названиях некоторых SKU лишние символы: звездочки (*) и пробелы. За счет этого группировка данных по SKU может быть выполнена некорректно, так как, например, SKU с названиями “лосось соленый” и “лосось * соленый” будут восприниматься как разные группы, поэтому данные символы нужно удалить из всех записей этого столбца;

также все записи по магазину “AUCHAN.UA-MAG” следует удалить, так как никакой информации о продажах по этому магазину не предоставлено;

добавим новые столбцы: “Доля рынка” = Товарооборот единицы / Общий товарооборот, “Товарные запасы” = Количество товаров * Тариф закупки;

переименуем некоторые столбцы для удобства обращения к ним.

Подобные проблемы достаточно часто возникают при выгрузке файлов из различных баз данных.

После всех преобразований мы получаем пригодный к работе датасет,

## # A tibble: 26,660 x 22
##    Номенклатура Артикул Категория Производитель Бренд   Вес Упаковка
##    <fct>        <fct>   <fct>     <fct>         <fct> <int> <fct>   
##  1 ТЕРМОПАКЕТИ  535431  ""        ""            ""       NA ""      
##  2 ТЕРМОПАКЕТИ  469887  ""        ""            ""       NA ""      
##  3 ТЕРМОПАКЕТИ  116358  ""        ""            ""       NA ""      
##  4 ЗАМОРОЖЕНІ ~ 598353  ""        ""            ""       NA ""      
##  5 ЗАМОРОЖЕНІ ~ 527270  ""        ""            ""       NA ""      
##  6 ЗАМОРОЖЕНІ ~ 527269  ""        ""            ""       NA ""      
##  7 ЗАМОРОЖЕНІ ~ 527267  ""        ""            ""       NA ""      
##  8 ЗАМОРОЖЕНІ ~ 527247  ""        ""            ""       NA ""      
##  9 ЗАМОРОЖЕНІ ~ 518001  ""        ""            ""       NA ""      
## 10 ЗАМОРОЖЕНІ ~ 451317  ""        ""            ""       NA ""      
## # ... with 26,650 more rows, and 15 more variables: Наименование <fct>,
## #   Поставщик <fct>, `Артикул GICA` <fct>, `Артикул удален в GICA` <lgl>, `Тип
## #   товара` <fct>, `Единица товара` <fct>, `Количество товаров (шт.)` <int>,
## #   `Количество товаров (л./кг.)` <dbl>, `Товарооборот с НДС (грн.)` <dbl>,
## #   `Тариф закупки (грн.)` <dbl>, `Маржа FIFO` <dbl>, Магазин <fct>,
## #   Период <fct>, Доля_рынка <dbl>, Товарные_запасы <dbl>
…
